{
    "KPlugin": {
        "Authors": [
            {
                "Name": "Milian Wolff",
                "Name[ca@valencia]": "Milian Wolff",
                "Name[ca]": "Milian Wolff",
                "Name[cs]": "Milian Wolff",
                "Name[da]": "Milian Wolff",
                "Name[de]": "Milian Wolff",
                "Name[el]": "Milian Wolff",
                "Name[en_GB]": "Milian Wolff",
                "Name[es]": "Milian Wolff",
                "Name[et]": "Milian Wolff",
                "Name[eu]": "Milian Wolff",
                "Name[fi]": "Milian Wolff",
                "Name[fr]": "Milian Wolff, Simon Depiets",
                "Name[gl]": "Milian Wolff",
                "Name[hu]": "Milian Wolff",
                "Name[it]": "Milian Wolff",
                "Name[ko]": "Milian Wolff",
                "Name[nl]": "Milian Wolff",
                "Name[nn]": "Milian Wolff",
                "Name[pl]": "Milian Wolff",
                "Name[pt]": "Milian Wolff",
                "Name[pt_BR]": "Milian Wolff",
                "Name[ru]": "Milian Wolff",
                "Name[sk]": "Milian Wolff",
                "Name[sl]": "Milian Wolff",
                "Name[sv]": "Milian Wolff",
                "Name[uk]": "Milian Wolff",
                "Name[x-test]": "xxMilian Wolffxx",
                "Name[zh_CN]": "Milian Wolff",
                "Name[zh_TW]": "Milian Wolff"
            }
        ],
        "Category": "Documentation",
        "Description": "This plugin integrates PHP.net online documentation.",
        "Description[ca@valencia]": "Este connector integra la documentació en línia de PHP.net.",
        "Description[ca]": "Aquest connector integra la documentació en línia de PHP.net.",
        "Description[da]": "Pluginet fortoker onlinedokumentation fra PHP.net.",
        "Description[de]": "Dieses Modul integriert die Online-Dokumentation von PHP.net.",
        "Description[el]": "Τελευταία τεκμηρίωση του Qt στο διαδίκτυο.",
        "Description[en_GB]": "This plugin integrates PHP.net online documentation.",
        "Description[es]": "Este complemento integra la documentación en línea de PHP.net.",
        "Description[et]": "See plugin lõimib PHP.net-i võrgudokumentatsiooni.",
        "Description[eu]": "Plugin honek «PHP.net»eko lerroko dokumentazioa integratzen du.",
        "Description[fi]": "Tämä liitännäinen integroi PHP.netin verkkodokumentaation.",
        "Description[fr]": "Ce module intègre la documentation en ligne de PHP.net.",
        "Description[gl]": "Este complemento integra a documentación en liña de PHP.net.",
        "Description[hu]": "Ez a bővítmény integrálja a PHP.net online dokumentációját.",
        "Description[it]": "Questa estensione integra la documentazione online di PHP.net.",
        "Description[ko]": "PHP.net 온라인 문서를 통합합니다.",
        "Description[nl]": "Deze plugin integreert PHP.net online-documentatie.",
        "Description[nn]": "Dette tillegget integrerer dokumentasjonen på PHP.net.",
        "Description[pl]": "Wtyczka ta integruje dokumentację internetową PHP.net.",
        "Description[pt]": "Este 'plugin' integra-se com a documentação 'online' do PHP.net.",
        "Description[pt_BR]": "Este plugin integra a documentação online do PHP.net.",
        "Description[ru]": "Этот модуль интегрирует онлайн-документацию PHP.net",
        "Description[sk]": "Tento plugin integruje online dokumentáciu PHP.net.",
        "Description[sl]": "Ta vstavek vključuje spletno dokumentacijo za PHP.",
        "Description[sv]": "Insticksprogrammet integrerar Internet-dokumentationen från PHP.net.",
        "Description[uk]": "За допомогою цього додатка можна інтегрувати документацію PHP.net.",
        "Description[x-test]": "xxThis plugin integrates PHP.net online documentation.xx",
        "Description[zh_CN]": "此插件集成了 PHP.net 的在线文档。",
        "Description[zh_TW]": "此外掛程式將 PHP.net 線上文件整合至此軟體。",
        "Id": "kdevphpdocs",
        "License": "GPL",
        "Name": "PHP Documentation",
        "Name[ca@valencia]": "Documentació de PHP",
        "Name[ca]": "Documentació de PHP",
        "Name[cs]": "Dokumentace PHP",
        "Name[da]": "PHP-dokumentation",
        "Name[de]": "PHP-Dokumentation",
        "Name[el]": "PHP τεκμηρίωση",
        "Name[en_GB]": "PHP Documentation",
        "Name[es]": "Documentación de PHP",
        "Name[et]": "PHP dokumentatsioon",
        "Name[eu]": "PHP dokumentazioa",
        "Name[fi]": "PHP-dokumentaatio",
        "Name[fr]": "Documentation PHP",
        "Name[gl]": "Documentación de PHP",
        "Name[hu]": "PHP dokumentáció",
        "Name[it]": "Documentazione PHP",
        "Name[ko]": "PHP 문서",
        "Name[nl]": "PHP-documentatie",
        "Name[nn]": "PHP-dokumentasjon",
        "Name[pl]": "Dokumentacja PHP",
        "Name[pt]": "Documentação de PHP",
        "Name[pt_BR]": "Documentação de PHP",
        "Name[ru]": "Документация по PHP",
        "Name[sk]": "Dokumentácia PHP",
        "Name[sl]": "Dokumentacija za PHP",
        "Name[sv]": "PHP-dokumentation",
        "Name[uk]": "Документація з PHP",
        "Name[x-test]": "xxPHP Documentationxx",
        "Name[zh_CN]": "PHP 文档",
        "Name[zh_TW]": "PHP 文件",
        "ServiceTypes": [
            "KDevelop/Plugin"
        ]
    },
    "X-KDevelop-Category": "Global",
    "X-KDevelop-IRequired": [
        "org.kdevelop.PHPSupport"
    ],
    "X-KDevelop-Interfaces": [
        "org.kdevelop.IDocumentationProvider"
    ],
    "X-KDevelop-Mode": "GUI"
}
